Quick_Start
…
sample_names <- sub(".tsv.*", "", input_files)
sample_names
#> [1] "sample_01" "sample_02" "sample_03"

raw_clonotype_dataframe_list <- lapply(input_paths, readr::read_tsv) %>%
    magrittr::set_names(., value = sample_names)
raw_clonotype_dataframe_list
#> $sample_01
#> # A tibble: 5,051 x 10
#>    `#count` frequency CDR3nt                CDR3aa V     D     J     C     cid  
#>       <dbl>     <dbl> <chr>                 <chr>  <chr> <chr> <chr> <chr> <chr>
#>  1     1813    0.0664 TGTCAGAAGTATGGTGGCTC~ CQKYG~ IGKV~ .     IGKJ~ IGKC  asse~
#>  2     1684    0.0833 TGCGCGAGAGATGCGGGGGG~ CARDA~ IGHV~ IGHD~ IGHJ~ IGHG1 asse~
#>  3     1648    0.0815 TGTGCGAGAGGGGGAGTGGA~ CARGG~ IGHV~ IGHD~ IGHJ~ IGHG1 asse~
#>  4     1505    0.0551 TGTCAACAGCTTAGTTATTA~ CQQLS~ IGKV~ .     IGKJ~ IGKC  asse~
#>  5     1081    0.0396 TGCATGCAAGGTCTACAAAC~ CMQGL~ IGKV~ .     IGKJ~ IGKC  asse~
#>  6      895    0.0328 TGTCAACAGAGTTACGGTAC~ CQQSY~ IGKV~ .     IGKJ~ IGKC  asse~
#>  7      866    0.0429 TGTGCGAGAGCCTCTTATTA~ CARAS~ IGHV~ IGHD~ IGHJ~ IGHG1 asse~
#>  8      811    0.0297 TGCATGCAAGCTCTACAAAC~ CMQAL~ IGKV~ .     IGKJ~ IGKC  asse~
#>  9      767    0.0281 TGCTGCTCATATACAGGCAG~ CCSYT~ IGLV~ .     IGLJ~ IGLC  asse~
#> 10      761    0.0377 TGTGCTAGGGCGGCCAGTGG~ CARAA~ IGHV~ IGHD~ IGHJ~ IGHG1 asse~
#> # ... with 5,041 more rows, and 1 more variable: cid_full_length <dbl>
#> 
#> $sample_02
#> # A tibble: 5,915 x 10
#>    `#count` frequency CDR3nt                CDR3aa V     D     J     C     cid  
#>       <dbl>     <dbl> <chr>                 <chr>  <chr> <chr> <chr> <chr> <chr>
#>  1     5392    0.0875 TGCATGCAAGCTCTACAAAC~ CMQAL~ IGKV~ .     IGKJ~ IGKC  asse~
#>  2     4470    0.0725 TGCATGCAATCTCTACAAGC~ CMQSL~ IGKV~ .     IGKJ~ IGKC  asse~
#>  3     3852    0.0625 TGTCAGCAGTATAATAACTG~ CQQYN~ IGKV~ .     IGKJ~ IGKC  asse~
#>  4     2893    0.0470 TGCCAACGATATGATACTTA~ CQRYD~ IGKV~ .     IGKJ~ IGKC  asse~
#>  5     2698    0.0438 TGTCAGCAGTATAATAACTG~ CQQYN~ IGKV~ .     IGKJ~ IGKC  asse~
#>  6     1691    0.0509 TGTGCGAGACAAGTTCGTCC~ CARQV~ IGHV~ IGHD~ IGHJ~ IGHG1 asse~
#>  7     1589    0.0478 TGTGCGAGACACGCGGATAC~ CARHA~ IGHV~ IGHD~ IGHJ~ IGHG1 asse~
#>  8     1373    0.0414 TGTGCGAGACAGTTTTACTA~ CARQF~ IGHV~ IGHD~ IGHJ~ IGHG1 asse~
#>  9     1319    0.0397 TGTGCGGCAGAGTGGGCTAG~ CAAEW~ IGHV~ IGHD~ IGHJ~ IGHG1 asse~
#> 10     1172    0.0353 TGTGCGAGGGGGGTCAATTA~ CARGV~ IGHV~ IGHD~ IGHJ~ IGHG1 asse~
#> # ... with 5,905 more rows, and 1 more variable: cid_full_length <dbl>
#> 
#> $sample_03
#> # A tibble: 6,027 x 10
#>    `#count` frequency CDR3nt                CDR3aa V     D     J     C     cid  
#>       <dbl>     <dbl> <chr>                 <chr>  <chr> <chr> <chr> <chr> <chr>
#>  1    14711    0.335  TGTACACTCCTGGTGACCAC~ CTLLV~ IGHV~ IGHD~ IGHJ~ IGHG1 asse~
#>  2    13909    0.341  TGCCAGTCCTATGACAGCAG~ CQSYD~ IGLV~ .     IGLJ~ IGLC  asse~
#>  3     6790    0.166  TGCAGCTCACACACAAGCAG~ CSSHT~ IGLV~ .     IGLJ~ IGLC  asse~
#>  4     4209    0.0959 TGTGCGAGAGCCCTCCCCTA~ CARAL~ IGHV~ IGHD~ IGHJ~ IGHG1 asse~
#>  5     3727    0.0850 TGTGCGAGAGCCCTCCCCTA~ CARAL~ IGHV~ IGHD~ IGHJ~ IGHA1 asse~
#>  6      910    0.0223 TGCAGCTCATATGCAGGCGG~ CSSYA~ IGLV~ .     IGLJ~ IGLC  asse~
#>  7      771    0.0189 TGTGCAGCATGGGAAGACAG~ CAAWE~ IGLV~ .     IGLJ~ IGLC  asse~
#>  8      768    0.0175 TGTGCGAGATTTTTCCATGA~ CARFF~ IGHV~ IGHD~ IGHJ~ IGHG3 asse~
#>  9      701    0.0172 TGCCAGTCCTATGACAGCAG~ CQSYD~ IGLV~ .     IGLJ~ IGLC  asse~
#> 10      628    0.0143 TGTGCGAGAGATGTACTATT~ CARDV~ IGHV~ IGHD~ IGHJ~ IGHG1 asse~
#> # ... with 6,017 more rows, and 1 more variable: cid_full_length <dbl>
…
